<?xml version="1.0" encoding="UTF-8" standalone="no"?>
<svg
   xmlns:dc="http://purl.org/dc/elements/1.1/"
   xmlns:cc="http://creativecommons.org/ns#"
   xmlns:rdf="http://www.w3.org/1999/02/22-rdf-syntax-ns#"
   xmlns:svg="http://www.w3.org/2000/svg"
   xmlns="http://www.w3.org/2000/svg"
   xmlns:sodipodi="http://sodipodi.sourceforge.net/DTD/sodipodi-0.dtd"
   xmlns:inkscape="http://www.inkscape.org/namespaces/inkscape"
   width="17"
   height="17"
   viewBox="0 0 17 17"
   version="1.1"
   id="svg6"
   sodipodi:docname="eye.svg"
   style="fill:none"
   inkscape:version="0.92.5 (2060ec1f9f, 2020-04-08)">
  <metadata
     id="metadata12">
    <rdf:RDF>
      <cc:Work
         rdf:about="">
        <dc:format>image/svg+xml</dc:format>
        <dc:type
           rdf:resource="http://purl.org/dc/dcmitype/StillImage" />
        <dc:title></dc:title>
      </cc:Work>
    </rdf:RDF>
  </metadata>
  <defs
     id="defs10" />
  <sodipodi:namedview
     pagecolor="#ffffff"
     bordercolor="#666666"
     borderopacity="1"
     objecttolerance="10"
     gridtolerance="10"
     guidetolerance="10"
     inkscape:pageopacity="0"
     inkscape:pageshadow="2"
     inkscape:window-width="1475"
     inkscape:window-height="772"
     id="namedview8"
     showgrid="false"
     fit-margin-top="0"
     fit-margin-left="0"
     fit-margin-right="0"
     fit-margin-bottom="0"
     inkscape:zoom="23.6"
     inkscape:cx="11.713652"
     inkscape:cy="8.720257"
     inkscape:window-x="69"
     inkscape:window-y="27"
     inkscape:window-maximized="0"
     inkscape:current-layer="g816" />
  <g
     id="g824"
     transform="matrix(0.31439231,0,0,0.31439231,-0.14391749,12.418043)"
     style="stroke-width:3.1807394">
    <g
       id="g816"
       transform="matrix(3.3333334,0,0,3.3333334,-1.068116,-34.006029)"
       style="stroke-width:0.95422179">
      <path
         style="fill:#660080;fill-opacity:1;stroke-width:3.03513074"
         inkscape:connector-curvature="0"
         d="m 8.5282314,8.2538361 c 0.9389101,0 1.6999996,-0.76109 1.6999996,-1.7 0,-0.9388845 -0.7610895,-1.7 -1.6999996,-1.7 -0.938876,0 -1.6999915,0.7611155 -1.6999915,1.7 0,0.93891 0.7611155,1.7 1.6999915,1.7 z"
         id="path2" />
      <path
         inkscape:connector-curvature="0"
         d="M 0.41733086,6.5538361 C 1.5004485,3.1053097 4.7222034,0.60383624 8.5282059,0.60383624 c 3.8059851,0 7.0277401,2.50144796 8.1108951,5.94996586 -1.083155,3.4485689 -4.30491,5.9500339 -8.1109121,5.9500339 -3.8059855,0 -7.0277234,-2.501465 -8.11085804,-5.9499999 z m 11.51090014,0 c 0,1.877735 -1.522265,3.3999997 -3.3999996,3.3999997 -1.8777605,0 -3.3999915,-1.5222647 -3.3999915,-3.3999997 0,-1.877769 1.522231,-3.3999999 3.3999915,-3.3999999 1.8777346,0 3.3999996,1.5222309 3.3999996,3.3999999 z"
         id="path4"
         style="clip-rule:evenodd;fill:#660080;fill-opacity:1;fill-rule:evenodd;stroke-width:3.03513074" />
    </g>
  </g>
</svg>
