<?xml version="1.0" encoding="UTF-8" standalone="no"?>
<svg
   xmlns:dc="http://purl.org/dc/elements/1.1/"
   xmlns:cc="http://creativecommons.org/ns#"
   xmlns:rdf="http://www.w3.org/1999/02/22-rdf-syntax-ns#"
   xmlns:svg="http://www.w3.org/2000/svg"
   xmlns="http://www.w3.org/2000/svg"
   xmlns:sodipodi="http://sodipodi.sourceforge.net/DTD/sodipodi-0.dtd"
   xmlns:inkscape="http://www.inkscape.org/namespaces/inkscape"
   width="17"
   height="17"
   viewBox="0 0 17 17"
   version="1.1"
   id="svg4"
   sodipodi:docname="globe.svg"
   inkscape:version="0.92.5 (2060ec1f9f, 2020-04-08)"
   style="fill:none">
  <metadata
     id="metadata10">
    <rdf:RDF>
      <cc:Work
         rdf:about="">
        <dc:format>image/svg+xml</dc:format>
        <dc:type
           rdf:resource="http://purl.org/dc/dcmitype/StillImage" />
        <dc:title></dc:title>
      </cc:Work>
    </rdf:RDF>
  </metadata>
  <defs
     id="defs8" />
  <sodipodi:namedview
     pagecolor="#ffffff"
     bordercolor="#666666"
     borderopacity="1"
     objecttolerance="10"
     gridtolerance="10"
     guidetolerance="10"
     inkscape:pageopacity="0"
     inkscape:pageshadow="2"
     inkscape:window-width="1851"
     inkscape:window-height="1016"
     id="namedview6"
     showgrid="false"
     inkscape:zoom="31.430896"
     inkscape:cx="-7.7424071"
     inkscape:cy="9.1736186"
     inkscape:window-x="69"
     inkscape:window-y="27"
     inkscape:window-maximized="0"
     inkscape:current-layer="svg4"
     fit-margin-top="0"
     fit-margin-left="0"
     fit-margin-right="0"
     fit-margin-bottom="0" />
  <path
     d="M 8.4999999,17 C 13.194445,17 17,13.194444 17,8.4999999 17,3.8055775 13.194445,0 8.4999999,0 3.8055775,0 0,3.8055775 0,8.4999999 0,13.194444 3.8055775,17 8.4999999,17 Z M 2.4775267,6.4041229 c 0.396982,-1.1409122 1.109027,-2.134318 2.0319465,-2.8760279 0.2846222,0.4346687 0.7759222,0.7218095 1.3342872,0.7218095 0.880207,0 1.59375,0.7135429 1.59375,1.5937497 v 0.53125 c 0,1.1736057 0.951405,2.1249999 2.1249895,2.1249999 1.1736371,0 2.1250001,-0.9513942 2.1250001,-2.1249999 0,-0.9988775 0.689245,-1.8367755 1.617975,-2.0641397 0.9775,1.1203212 1.569525,2.5855934 1.569525,4.1891504 0,0.3620787 -0.03017,0.71706 -0.08818,1.0626912 H 13.8125 c -1.173637,0 -2.125,0.9513629 -2.125,2.1249999 v 2.334525 c -0.937655,0.542406 -2.0264001,0.852763 -3.1875851,0.852763 V 12.75 c 0,-1.173638 -0.951405,-2.125 -2.125,-2.125 -1.1736054,0 -2.1249999,-0.9513626 -2.1249999,-2.1250001 0,-1.0534795 -0.7666046,-1.9279062 -1.7723883,-2.095877 z"
     id="path2"
     style="clip-rule:evenodd;fill:#660080;fill-opacity:1;fill-rule:evenodd;stroke-width:0.37500003"
     inkscape:connector-curvature="0" />
</svg>
