<?xml version="1.0" encoding="UTF-8" standalone="no"?>
<svg
   xmlns:dc="http://purl.org/dc/elements/1.1/"
   xmlns:cc="http://creativecommons.org/ns#"
   xmlns:rdf="http://www.w3.org/1999/02/22-rdf-syntax-ns#"
   xmlns:svg="http://www.w3.org/2000/svg"
   xmlns="http://www.w3.org/2000/svg"
   xmlns:sodipodi="http://sodipodi.sourceforge.net/DTD/sodipodi-0.dtd"
   xmlns:inkscape="http://www.inkscape.org/namespaces/inkscape"
   width="17"
   height="14.875"
   viewBox="0 0 17 14.875"
   version="1.1"
   id="svg8"
   sodipodi:docname="user-ban.svg"
   style="fill:none"
   inkscape:version="0.92.5 (2060ec1f9f, 2020-04-08)">
  <metadata
     id="metadata14">
    <rdf:RDF>
      <cc:Work
         rdf:about="">
        <dc:format>image/svg+xml</dc:format>
        <dc:type
           rdf:resource="http://purl.org/dc/dcmitype/StillImage" />
        <dc:title></dc:title>
      </cc:Work>
    </rdf:RDF>
  </metadata>
  <defs
     id="defs12" />
  <sodipodi:namedview
     pagecolor="#ffffff"
     bordercolor="#666666"
     borderopacity="1"
     objecttolerance="10"
     gridtolerance="10"
     guidetolerance="10"
     inkscape:pageopacity="0"
     inkscape:pageshadow="2"
     inkscape:window-width="1867"
     inkscape:window-height="1016"
     id="namedview10"
     showgrid="false"
     fit-margin-top="0"
     fit-margin-left="0"
     fit-margin-right="0"
     fit-margin-bottom="0"
     inkscape:zoom="46.15993"
     inkscape:cx="14.018661"
     inkscape:cy="5.9826847"
     inkscape:window-x="53"
     inkscape:window-y="27"
     inkscape:window-maximized="1"
     inkscape:current-layer="svg8"
     inkscape:pagecheckerboard="0"
     inkscape:snap-bbox="true"
     showborder="true" />
  <g
     id="g4730"
     style="fill:#757575;fill-opacity:1;stroke-width:1.09700203"
     transform="matrix(0.73038421,0,0,0.73038421,-0.45122432,2.3291449)">
    <g
       id="g817"
       transform="matrix(1.1131063,0,0,1.1131063,0.74249347,-1.2236044)"
       style="fill:#757575;fill-opacity:1;stroke-width:0.98553228">
      <path
         inkscape:connector-curvature="0"
         d="m 9.9060647,16.533114 c 0,-3.057179 -2.2171392,-9.6912285 -4.9886963,-9.6912285 -2.7715654,0 -5.04802587,6.6340495 -5.04802587,9.6912285 z"
         id="path4"
         style="fill:#757575;fill-opacity:1;stroke-width:0.98553222"
         sodipodi:nodetypes="cscc" />
      <path
         inkscape:connector-curvature="0"
         d="m 8.0752036,1.4540166 c 0,1.7604031 -1.4270969,3.1875 -3.1875,3.1875 -1.7604031,0 -3.1875,-1.4270969 -3.1875,-3.1875 0,-1.76040304 1.4270969,-3.1874999 3.1875,-3.1874999 1.7604031,0 3.1875,1.42709686 3.1875,3.1874999 z"
         id="path2"
         style="fill:#757575;fill-opacity:1;stroke-width:0.98553228" />
    </g>
  </g>
  <path
     id="path6-9"
     style="fill:#f35c5c;fill-opacity:1;stroke:#f35c5c;stroke-width:0.80123287;stroke-opacity:1"
     d="m 12.127096,2.3940117 c -2.4765728,0 -4.4841865,2.0085666 -4.4841865,4.4851394 0,2.476574 2.0076137,4.4841899 4.4841865,4.4841899 2.47657,0 4.484187,-2.0076159 4.484187,-4.4841899 0,-2.4765728 -2.007617,-4.4851394 -4.484187,-4.4851394 z m 0,0.7837834 c 0.831529,0 1.599357,0.27411 2.21739,0.737231 l -5.1482638,5.22237 c -0.482044,-0.624843 -0.76953,-1.407954 -0.76953,-2.258245 0,-2.0438221 1.6565828,-3.701356 3.7004038,-3.701356 z m 2.947974,1.4640116 c 0.472471,0.6215224 0.75338,1.3966014 0.75338,2.2373444 0,2.043824 -1.657532,3.7004069 -3.701354,3.7004069 -0.821527,0 -1.580632,-0.268209 -2.1945928,-0.7210799 z"
     inkscape:connector-curvature="0" />
</svg>
