<?xml version="1.0" encoding="UTF-8" standalone="no"?>
<svg
   id="svg2466"
   version="1.1"
   viewBox="0 0 63.456257 8.6666679"
   height="8.6666679mm"
   width="63.456257mm"
   sodipodi:docname="logo_warning.svg"
   inkscape:version="1.1.1 (3bf5ae0d25, 2021-09-20)"
   xmlns:inkscape="http://www.inkscape.org/namespaces/inkscape"
   xmlns:sodipodi="http://sodipodi.sourceforge.net/DTD/sodipodi-0.dtd"
   xmlns="http://www.w3.org/2000/svg"
   xmlns:svg="http://www.w3.org/2000/svg"
   xmlns:rdf="http://www.w3.org/1999/02/22-rdf-syntax-ns#"
   xmlns:cc="http://creativecommons.org/ns#"
   xmlns:dc="http://purl.org/dc/elements/1.1/">
  <sodipodi:namedview
     id="namedview37"
     pagecolor="#ffffff"
     bordercolor="#cccccc"
     borderopacity="1"
     inkscape:pageshadow="0"
     inkscape:pageopacity="1"
     inkscape:pagecheckerboard="0"
     inkscape:document-units="mm"
     showgrid="false"
     inkscape:zoom="4.08"
     inkscape:cx="46.323529"
     inkscape:cy="-12.990196"
     inkscape:window-width="1920"
     inkscape:window-height="1048"
     inkscape:window-x="0"
     inkscape:window-y="0"
     inkscape:window-maximized="1"
     inkscape:current-layer="layer2" />
  <defs
     id="defs2460" />
  <metadata
     id="metadata2463">
    <rdf:RDF>
      <cc:Work
         rdf:about="">
        <dc:format>image/svg+xml</dc:format>
        <dc:type
           rdf:resource="http://purl.org/dc/dcmitype/StillImage" />
      </cc:Work>
    </rdf:RDF>
  </metadata>
  <g
     inkscape:groupmode="layer"
     id="layer2"
     inkscape:label="base"
     style="display:inline">
    <rect
       style="opacity:0.69987029;fill:#609f3c;fill-opacity:1;fill-rule:evenodd;stroke-width:0.517967"
       id="rect21468"
       width="71.650383"
       height="27.21048"
       x="-10.241047"
       y="-9.1782789" />
    <g
       id="g37442-5-6-1-8-6-8-5-4-1-1"
       transform="matrix(0.25196851,0,0,0.25196851,2.0958613,-94.167963)"
       style="fill:#ff6600;fill-opacity:1;stroke-width:3.96875">
      <path
         style="opacity:1;fill:#ff6600;fill-opacity:1;stroke:none;stroke-width:5.25;stroke-miterlimit:4;stroke-dasharray:none;stroke-dashoffset:0;stroke-opacity:1"
         d="m 65,935 v 5 h -5 -5 v 5 5 5 5 h 5 v 5 h 70 5 v -5 h 5 v -5 -5 -5 -5 h -5 -5 v 5 h -5 -5 v -5 h -5 -5 -5 -5 -5 -5 -5 v 5 h -5 v -5 h -5 v -5 h -5 z"
         transform="matrix(0.26458333,0,0,0.26458333,-1.3229157,150.15622)"
         id="rect7047-5-6-5-3-5-9-9-0-6-3-2-3-2-7-3-1-2-8-6-2-2" />
    </g>
    <g
       style="fill:#f9f9f9;fill-opacity:1;stroke-width:3.96875"
       id="g39376-8-1-6-4-0-0-4-2-2-0"
       transform="matrix(0.25196851,0,0,0.25196851,-5.2374705,-96.168009)">
      <path
         style="opacity:1;fill:#f9f9f9;fill-opacity:1;stroke:none;stroke-width:1.38906;stroke-miterlimit:4;stroke-dasharray:none;stroke-dashoffset:0;stroke-opacity:1"
         d="m 64.82291,385.63502 v 1.32292 25.13593 h -1.322917 v 1.32292 H 43.656244 v -1.32292 h -1.322917 v -1.32291 -1.32292 -1.32292 -1.32291 -1.32292 -1.32292 -1.32291 -1.32292 -1.32292 -1.32291 -1.32292 -1.32292 -1.32291 -1.32292 -1.32292 -1.32291 -1.32292 -1.32292 -1.32291 -1.32292 H 41.01041 39.687494 v 1.32292 1.32291 1.32292 1.32292 1.32291 1.32292 1.32292 1.32291 1.32292 1.32292 1.32291 1.32292 1.32292 1.32291 1.32292 1.32292 1.32291 1.32292 1.32292 1.32291 1.32292 h 1.322916 v 1.32292 h 1.322917 v 1.32291 h 1.322917 19.843749 1.322917 v -1.32291 h 1.322917 v -1.32292 h 1.322916 v -26.45885 -1.32292 h -1.322916 z"
         id="rect7047-5-6-85-7-2-9-0-0-9-8-5-4-9-1-5" />
    </g>
    <text
       xml:space="preserve"
       style="font-style:normal;font-variant:normal;font-weight:normal;font-stretch:normal;font-size:1.72907px;line-height:1.25;font-family:Bungee;-inkscape-font-specification:'Bungee, Normal';font-variant-ligatures:normal;font-variant-caps:normal;font-variant-numeric:normal;font-variant-east-asian:normal;text-align:start;letter-spacing:0px;word-spacing:0px;writing-mode:lr-tb;text-anchor:start;fill:#f9f9f9;fill-opacity:1;stroke-width:0.0298539"
       x="12.538618"
       y="3.9977832"
       id="text15590"><tspan
         sodipodi:role="line"
         id="tspan15588"
         style="font-style:normal;font-variant:normal;font-weight:normal;font-stretch:normal;font-size:1.72907px;font-family:Bungee;-inkscape-font-specification:'Bungee, Normal';font-variant-ligatures:normal;font-variant-caps:normal;font-variant-numeric:normal;font-variant-east-asian:normal;text-align:start;text-anchor:start;fill:#f9f9f9;fill-opacity:1;stroke-width:0.0298539"
         x="12.538618"
         y="3.9977832">No preview image found.</tspan><tspan
         sodipodi:role="line"
         style="font-style:normal;font-variant:normal;font-weight:normal;font-stretch:normal;font-size:1.72907px;font-family:Bungee;-inkscape-font-specification:'Bungee, Normal';font-variant-ligatures:normal;font-variant-caps:normal;font-variant-numeric:normal;font-variant-east-asian:normal;text-align:start;text-anchor:start;fill:#f9f9f9;fill-opacity:1;stroke-width:0.0298539"
         x="12.538618"
         y="6.1591206"
         id="tspan15592">Please add &quot;map.png&quot; to your map directory.</tspan></text>
  </g>
  <g
     inkscape:groupmode="layer"
     id="layer1"
     inkscape:label="hide glass content"
     style="display:inline"
     sodipodi:insensitive="true">
    <g
       id="g37269-2-2-64-9-5-9-7-9-2-0-6"
       transform="matrix(0.25196851,0,0,0.25196851,5.0958599,-96.167988)"
       style="fill:#ffe6d5;fill-opacity:1;stroke-width:3.96875">
      <path
         style="opacity:1;fill:#ffe6d5;fill-opacity:1;stroke:none;stroke-width:5.25;stroke-miterlimit:4;stroke-dasharray:none;stroke-dashoffset:0;stroke-opacity:1"
         d="m 55,870 v 5 5 5 5 5 h 5 5 5 5 v -5 h 5 5 5 v 5 h 5 5 5 v 5 5 h 5 5 v -5 h 5 v -5 h 5 5 5 5 v -5 -5 -5 -5 -5 h -5 -5 -5 v 5 h -5 -5 v -5 h -5 -5 -5 -5 v 5 h 5 v 5 h -5 v 5 h -5 -5 -5 -5 -5 v -5 h -5 v -5 h -5 v -5 z"
         transform="matrix(0.26458333,0,0,0.26458333,-13.229164,158.09383)"
         id="rect7047-5-6-5-3-5-9-9-0-6-2-6-1-49-1-2-5-8-5-0-4-0-4-6-8-5-7" />
    </g>
    <g
       transform="matrix(0.25196851,0,0,0.25196851,1.4291929,-74.834647)"
       id="g36442-5-7-7-7-2-3-2-1-1-8-0"
       style="fill:#ffb380;fill-opacity:1;stroke-width:3.96875">
      <g
         transform="translate(-25.13541,35.718781)"
         id="g15353-1-2-1-2-7-3-7-0-3-5-9-7"
         style="fill:#ffb380;fill-opacity:1;stroke-width:3.96875" />
      <g
         id="g39023-8-6-7-62-7-6-3-6-3-3"
         transform="translate(31.750001,-1.3229257)"
         style="fill:#ffb380;fill-opacity:1;stroke-width:3.96875">
        <path
           style="opacity:1;fill:#ffb380;fill-opacity:1;stroke:none;stroke-width:5.25;stroke-miterlimit:4;stroke-dasharray:none;stroke-dashoffset:0;stroke-opacity:1"
           d="m 75,890 v 5 h -5 -5 -5 -5 v 5 5 5 5 h 5 5 v -5 h 5 5 5 5 v 5 h 5 5 5 v 5 h 5 v 5 h 5 5 v -5 -5 h 5 5 5 v -5 h 5 5 v -5 -5 -5 h -5 -5 -5 -5 v 5 h -5 v 5 h -5 -5 v -5 -5 h -5 -5 -5 v -5 h -5 -5 z"
           transform="matrix(0.26458333,0,0,0.26458333,-30.427081,74.750056)"
           id="rect7047-5-6-5-3-5-9-9-0-6-2-6-1-8-8-1-0-9-6-2-1-3-9-1-6-1" />
      </g>
    </g>
    <g
       id="g35082-6-9-16-4-2-6-7-7-8-1"
       transform="matrix(0.25196851,0,0,0.25196851,-2.237473,-81.834662)"
       style="fill:#ff9955;fill-opacity:1;stroke-width:3.96875">
      <path
         style="opacity:1;fill:#ff9955;fill-opacity:1;stroke:none;stroke-width:5.25;stroke-miterlimit:4;stroke-dasharray:none;stroke-dashoffset:0;stroke-opacity:1"
         d="m 65,910 v 5 h -5 -5 v 5 5 5 5 5 h 5 5 v -5 h 5 5 v 5 h 5 v 5 h 5 v -5 h 5 5 5 5 5 5 5 v 5 h 5 5 v -5 h 5 5 v -5 -5 -5 -5 -5 -5 h -5 -5 v 5 h -5 -5 -5 v 5 5 h -5 -5 v -5 h -5 v -5 h -5 -5 -5 v -5 h -5 -5 -5 z"
         transform="matrix(0.26458333,0,0,0.26458333,15.875003,101.20844)"
         id="rect7047-5-6-5-3-5-9-9-8-9-2-7-6-6-2-70-1-1-5-2-0-9" />
    </g>
    <g
       style="fill:#6ac92d;fill-opacity:1;stroke-width:3.96875"
       transform="matrix(0.25196851,0,0,0.25196851,23.095864,-122.83465)"
       id="g18011-0-3-64-1-2-7-1-1-7">
      <path
         style="opacity:1;fill:#6ac92d;fill-opacity:1;stroke:none;stroke-width:5.25;stroke-miterlimit:4;stroke-dasharray:none;stroke-dashoffset:0;stroke-opacity:1"
         d="m 245,830 v 5 h -5 v 5 5 5 5 h 5 v 5 h 5 v 5 h 5 v 5 h 5 5 5 5 5 v -5 h 5 v -5 -5 h -5 v 5 h -5 v 5 h -5 -5 v -5 h -5 -5 v -5 h -5 v -5 -5 -5 -5 -5 z"
         transform="matrix(0.26458333,0,0,0.26458333,-133.61458,267.89584)"
         id="rect7047-3-06-7-8-4-3-9-8-9-7-5-9-4-4-1-2-8-2-3-0-2-2-1-4" />
    </g>
    <g
       style="fill:#6ac92d;fill-opacity:1;stroke-width:3.96875"
       id="g17096-3-4-5-5-4-0-1-4-0-0"
       transform="matrix(0.25196851,0,0,0.25196851,11.429196,-126.83465)">
      <path
         style="opacity:1;fill:#b3ff80;fill-opacity:1;stroke:none;stroke-width:5.25;stroke-miterlimit:4;stroke-dasharray:none;stroke-dashoffset:0;stroke-opacity:1"
         d="m 250,830 v 5 5 5 5 5 h 5 v 5 h 5 5 v 5 h 5 5 v -5 h 5 v -5 -5 h -5 v -5 h -5 v -5 h -5 v -5 h -5 -5 v -5 z"
         transform="matrix(0.26458333,0,0,0.26458333,-87.3125,283.77084)"
         id="rect7047-3-9-7-31-2-3-9-8-3-1-0-6-5-3-2-7-0-1-8-3-0-7-8-6" />
    </g>
  </g>
</svg>
